<svg width="300" height="150" viewBox="0 0 300 150" fill="none" xmlns="http://www.w3.org/2000/svg">
<g clip-path="url(#clip0_15_155)">
<path d="M215.337 99.5716C218.142 99.5716 220.13 99.0565 221.61 97.9471V92.915C220.091 93.9848 218.259 94.6584 215.688 94.6584C211.363 94.6584 209.57 91.2509 209.57 85.8622C209.57 80.1961 211.752 77.3037 215.727 77.3037C218.065 77.3037 220.363 78.1358 221.571 78.9282V73.698C220.285 72.9848 218.065 72.4697 215.025 72.4697C207.271 72.4697 203.258 78.1358 203.258 86.0603C203.297 94.7376 207.232 99.5716 215.337 99.5716ZM177.424 97.2735V92.2414C175.554 93.549 172.359 94.698 169.437 94.698C164.995 94.698 163.319 92.5584 163.047 88.1999H177.697V84.9509C177.697 75.8773 173.762 72.4697 167.722 72.4697C160.319 72.4697 156.812 78.215 156.812 86.0999C156.812 95.1735 161.215 99.5716 168.93 99.5716C172.788 99.5716 175.632 98.5018 177.424 97.2735ZM121.822 72.9452V83.2471H113.717V72.9452H107.639V99.0565H113.717V88.1603H121.822V99.0565H127.9V72.9452H121.822ZM155.293 94.1433H152.604V72.9452H134.914V75.1641C134.914 81.5433 134.524 89.7848 132.381 94.1433H130.433V105H136.044V99.0565H149.643V105H155.254V94.1433H155.293ZM196.79 99.0565H203.687L193.945 84.9905L202.518 72.9452H196.4L187.828 84.9905V72.9452H181.75V99.0565H187.828V86.2188L196.79 99.0565ZM167.566 77.3037C170.567 77.3037 171.502 79.8395 171.502 83.1282V83.6433H163.047C163.202 79.4829 164.683 77.3037 167.566 77.3037ZM146.526 94.1433H137.953C139.629 90.2207 140.096 83.0886 140.096 78.5716V77.7792H146.526V94.1433Z" fill="white"/>
<path d="M102.574 99.0566H96.3782V67.8736H93.6117C88.5463 67.8736 85.8967 70.4491 85.8967 74.2925C85.8967 78.6509 87.7281 80.6717 91.5076 83.2472L94.6248 85.3868L85.6629 99.0566H79L87.0657 86.8528C82.4289 83.4849 79.8183 80.1962 79.8183 74.6491C79.8183 67.7151 84.5719 63 93.5728 63H102.535V99.0566H102.574Z" fill="white"/>
</g>
<defs>
<clipPath id="clip0_15_155">
<rect width="143" height="42" fill="white" transform="translate(79 63)"/>
</clipPath>
</defs>
</svg>
